^C:\USERS\BONES\DOCUMENTS\REV ENGINE\REV ENGINE\DEBUG MENU\DEBUGMENU.CPP
/c /I"C:\USERS\BONES\DOCUMENTS\REV ENGINE\REV ENGINE\PACKAGES\SDL2_MIXER.NUGET.2.0.4\BUILD\NATIVE\../..//BUILD/NATIVE/INCLUDE/" /I"C:\USERS\BONES\DOCUMENTS\REV ENGINE\REV ENGINE\PACKAGES\SDL2_TTF.NUGET.2.0.15\BUILD\NATIVE\../..//BUILD/NATIVE/INCLUDE/" /I"C:\USERS\BONES\DOCUMENTS\REV ENGINE\REV ENGINE\PACKAGES\SDL2_IMAGE.NUGET.2.0.4\BUILD\NATIVE\../..//BUILD/NATIVE/INCLUDE/" /I"C:\USERS\BONES\DOCUMENTS\REV ENGINE\REV ENGINE\PACKAGES\SDL2.NUGET.2.0.9\BUILD\NATIVE\../..//BUILD/NATIVE/INCLUDE/" /Zi /nologo /W3 /WX- /diagnostics:column /sdl /O2 /Oi /Oy- /GL /D HAS_SDL2 /D HAS_SDL2 /D HAS_SDL2 /D HAS_SDL2 /D _MBCS /Gm- /EHsc /MD /GS /Gy /fp:precise /permissive- /Zc:wchar_t /Zc:forScope /Zc:inline /Fo"RELEASE\\" /Fd"RELEASE\VC142.PDB" /Gd /TP /analyze- /FC C:\USERS\BONES\DOCUMENTS\REV ENGINE\REV ENGINE\DEBUG MENU\DEBUGMENU.CPP
^C:\USERS\BONES\DOCUMENTS\REV ENGINE\REV ENGINE\MAIN.CPP
/c /I"C:\USERS\BONES\DOCUMENTS\REV ENGINE\REV ENGINE\PACKAGES\SDL2_MIXER.NUGET.2.0.4\BUILD\NATIVE\../..//BUILD/NATIVE/INCLUDE/" /I"C:\USERS\BONES\DOCUMENTS\REV ENGINE\REV ENGINE\PACKAGES\SDL2_TTF.NUGET.2.0.15\BUILD\NATIVE\../..//BUILD/NATIVE/INCLUDE/" /I"C:\USERS\BONES\DOCUMENTS\REV ENGINE\REV ENGINE\PACKAGES\SDL2_IMAGE.NUGET.2.0.4\BUILD\NATIVE\../..//BUILD/NATIVE/INCLUDE/" /I"C:\USERS\BONES\DOCUMENTS\REV ENGINE\REV ENGINE\PACKAGES\SDL2.NUGET.2.0.9\BUILD\NATIVE\../..//BUILD/NATIVE/INCLUDE/" /Zi /nologo /W3 /WX- /diagnostics:column /sdl /O2 /Oi /Oy- /GL /D HAS_SDL2 /D HAS_SDL2 /D HAS_SDL2 /D HAS_SDL2 /D _MBCS /Gm- /EHsc /MD /GS /Gy /fp:precise /permissive- /Zc:wchar_t /Zc:forScope /Zc:inline /Fo"RELEASE\\" /Fd"RELEASE\VC142.PDB" /Gd /TP /analyze- /FC C:\USERS\BONES\DOCUMENTS\REV ENGINE\REV ENGINE\MAIN.CPP
^C:\USERS\BONES\DOCUMENTS\REV ENGINE\REV ENGINE\PLAYERONE.CPP
/c /I"C:\USERS\BONES\DOCUMENTS\REV ENGINE\REV ENGINE\PACKAGES\SDL2_MIXER.NUGET.2.0.4\BUILD\NATIVE\../..//BUILD/NATIVE/INCLUDE/" /I"C:\USERS\BONES\DOCUMENTS\REV ENGINE\REV ENGINE\PACKAGES\SDL2_TTF.NUGET.2.0.15\BUILD\NATIVE\../..//BUILD/NATIVE/INCLUDE/" /I"C:\USERS\BONES\DOCUMENTS\REV ENGINE\REV ENGINE\PACKAGES\SDL2_IMAGE.NUGET.2.0.4\BUILD\NATIVE\../..//BUILD/NATIVE/INCLUDE/" /I"C:\USERS\BONES\DOCUMENTS\REV ENGINE\REV ENGINE\PACKAGES\SDL2.NUGET.2.0.9\BUILD\NATIVE\../..//BUILD/NATIVE/INCLUDE/" /Zi /nologo /W3 /WX- /diagnostics:column /sdl /O2 /Oi /Oy- /GL /D HAS_SDL2 /D HAS_SDL2 /D HAS_SDL2 /D HAS_SDL2 /D _MBCS /Gm- /EHsc /MD /GS /Gy /fp:precise /permissive- /Zc:wchar_t /Zc:forScope /Zc:inline /Fo"RELEASE\\" /Fd"RELEASE\VC142.PDB" /Gd /TP /analyze- /FC C:\USERS\BONES\DOCUMENTS\REV ENGINE\REV ENGINE\PLAYERONE.CPP
^C:\USERS\BONES\DOCUMENTS\REV ENGINE\REV ENGINE\CHARACTERS\ANKERMEN\ANKERMEN.CPP
/c /I"C:\USERS\BONES\DOCUMENTS\REV ENGINE\REV ENGINE\PACKAGES\SDL2_MIXER.NUGET.2.0.4\BUILD\NATIVE\../..//BUILD/NATIVE/INCLUDE/" /I"C:\USERS\BONES\DOCUMENTS\REV ENGINE\REV ENGINE\PACKAGES\SDL2_TTF.NUGET.2.0.15\BUILD\NATIVE\../..//BUILD/NATIVE/INCLUDE/" /I"C:\USERS\BONES\DOCUMENTS\REV ENGINE\REV ENGINE\PACKAGES\SDL2_IMAGE.NUGET.2.0.4\BUILD\NATIVE\../..//BUILD/NATIVE/INCLUDE/" /I"C:\USERS\BONES\DOCUMENTS\REV ENGINE\REV ENGINE\PACKAGES\SDL2.NUGET.2.0.9\BUILD\NATIVE\../..//BUILD/NATIVE/INCLUDE/" /Zi /nologo /W3 /WX- /diagnostics:column /sdl /O2 /Oi /Oy- /GL /D HAS_SDL2 /D HAS_SDL2 /D HAS_SDL2 /D HAS_SDL2 /D _MBCS /Gm- /EHsc /MD /GS /Gy /fp:precise /permissive- /Zc:wchar_t /Zc:forScope /Zc:inline /Fo"RELEASE\\" /Fd"RELEASE\VC142.PDB" /Gd /TP /analyze- /FC C:\USERS\BONES\DOCUMENTS\REV ENGINE\REV ENGINE\CHARACTERS\ANKERMEN\ANKERMEN.CPP
^C:\USERS\BONES\DOCUMENTS\REV ENGINE\REV ENGINE\CORE.CPP
/c /I"C:\USERS\BONES\DOCUMENTS\REV ENGINE\REV ENGINE\PACKAGES\SDL2_MIXER.NUGET.2.0.4\BUILD\NATIVE\../..//BUILD/NATIVE/INCLUDE/" /I"C:\USERS\BONES\DOCUMENTS\REV ENGINE\REV ENGINE\PACKAGES\SDL2_TTF.NUGET.2.0.15\BUILD\NATIVE\../..//BUILD/NATIVE/INCLUDE/" /I"C:\USERS\BONES\DOCUMENTS\REV ENGINE\REV ENGINE\PACKAGES\SDL2_IMAGE.NUGET.2.0.4\BUILD\NATIVE\../..//BUILD/NATIVE/INCLUDE/" /I"C:\USERS\BONES\DOCUMENTS\REV ENGINE\REV ENGINE\PACKAGES\SDL2.NUGET.2.0.9\BUILD\NATIVE\../..//BUILD/NATIVE/INCLUDE/" /Zi /nologo /W3 /WX- /diagnostics:column /sdl /O2 /Oi /Oy- /GL /D HAS_SDL2 /D HAS_SDL2 /D HAS_SDL2 /D HAS_SDL2 /D _MBCS /Gm- /EHsc /MD /GS /Gy /fp:precise /permissive- /Zc:wchar_t /Zc:forScope /Zc:inline /Fo"RELEASE\\" /Fd"RELEASE\VC142.PDB" /Gd /TP /analyze- /FC C:\USERS\BONES\DOCUMENTS\REV ENGINE\REV ENGINE\CORE.CPP
^C:\USERS\BONES\DOCUMENTS\REV ENGINE\REV ENGINE\TEST ROOM\ROOM.CPP
/c /I"C:\USERS\BONES\DOCUMENTS\REV ENGINE\REV ENGINE\PACKAGES\SDL2_MIXER.NUGET.2.0.4\BUILD\NATIVE\../..//BUILD/NATIVE/INCLUDE/" /I"C:\USERS\BONES\DOCUMENTS\REV ENGINE\REV ENGINE\PACKAGES\SDL2_TTF.NUGET.2.0.15\BUILD\NATIVE\../..//BUILD/NATIVE/INCLUDE/" /I"C:\USERS\BONES\DOCUMENTS\REV ENGINE\REV ENGINE\PACKAGES\SDL2_IMAGE.NUGET.2.0.4\BUILD\NATIVE\../..//BUILD/NATIVE/INCLUDE/" /I"C:\USERS\BONES\DOCUMENTS\REV ENGINE\REV ENGINE\PACKAGES\SDL2.NUGET.2.0.9\BUILD\NATIVE\../..//BUILD/NATIVE/INCLUDE/" /Zi /nologo /W3 /WX- /diagnostics:column /sdl /O2 /Oi /Oy- /GL /D HAS_SDL2 /D HAS_SDL2 /D HAS_SDL2 /D HAS_SDL2 /D _MBCS /Gm- /EHsc /MD /GS /Gy /fp:precise /permissive- /Zc:wchar_t /Zc:forScope /Zc:inline /Fo"RELEASE\\" /Fd"RELEASE\VC142.PDB" /Gd /TP /analyze- /FC C:\USERS\BONES\DOCUMENTS\REV ENGINE\REV ENGINE\TEST ROOM\ROOM.CPP
