^C:\USERS\BONES\DOCUMENTS\REV ENGINE\REV ENGINE\RELEASE\ANKERMEN.OBJ|C:\USERS\BONES\DOCUMENTS\REV ENGINE\REV ENGINE\RELEASE\CORE.OBJ|C:\USERS\BONES\DOCUMENTS\REV ENGINE\REV ENGINE\RELEASE\DEBUGMENU.OBJ|C:\USERS\BONES\DOCUMENTS\REV ENGINE\REV ENGINE\RELEASE\MAIN.OBJ|C:\USERS\BONES\DOCUMENTS\REV ENGINE\REV ENGINE\RELEASE\PLAYERONE.OBJ|C:\USERS\BONES\DOCUMENTS\REV ENGINE\REV ENGINE\RELEASE\ROOM.OBJ
C:\USERS\BONES\DOCUMENTS\REV ENGINE\REV ENGINE\PACKAGES\SDL2_MIXER.NUGET.2.0.4\BUILD\NATIVE\LIB\WIN32\DYNAMIC\SDL2_MIXER.LIB
C:\USERS\BONES\DOCUMENTS\REV ENGINE\REV ENGINE\PACKAGES\SDL2_TTF.NUGET.2.0.15\BUILD\NATIVE\LIB\WIN32\DYNAMIC\SDL2_TTF.LIB
C:\USERS\BONES\DOCUMENTS\REV ENGINE\REV ENGINE\PACKAGES\SDL2_IMAGE.NUGET.2.0.4\BUILD\NATIVE\LIB\WIN32\DYNAMIC\SDL2_IMAGE.LIB
C:\USERS\BONES\DOCUMENTS\REV ENGINE\REV ENGINE\PACKAGES\SDL2.NUGET.2.0.9\BUILD\NATIVE\LIB\WIN32\DYNAMIC\SDL2TEST.LIB
C:\USERS\BONES\DOCUMENTS\REV ENGINE\REV ENGINE\PACKAGES\SDL2.NUGET.2.0.9\BUILD\NATIVE\LIB\WIN32\DYNAMIC\SDL2MAIN.LIB
C:\USERS\BONES\DOCUMENTS\REV ENGINE\REV ENGINE\PACKAGES\SDL2.NUGET.2.0.9\BUILD\NATIVE\LIB\WIN32\DYNAMIC\SDL2.LIB
C:\PROGRAM FILES (X86)\WINDOWS KITS\10\LIB\10.0.17763.0\UM\X86\KERNEL32.LIB
C:\PROGRAM FILES (X86)\WINDOWS KITS\10\LIB\10.0.17763.0\UM\X86\USER32.LIB
C:\PROGRAM FILES (X86)\WINDOWS KITS\10\LIB\10.0.17763.0\UM\X86\GDI32.LIB
C:\PROGRAM FILES (X86)\WINDOWS KITS\10\LIB\10.0.17763.0\UM\X86\WINSPOOL.LIB
C:\PROGRAM FILES (X86)\WINDOWS KITS\10\LIB\10.0.17763.0\UM\X86\COMDLG32.LIB
C:\PROGRAM FILES (X86)\WINDOWS KITS\10\LIB\10.0.17763.0\UM\X86\ADVAPI32.LIB
C:\PROGRAM FILES (X86)\WINDOWS KITS\10\LIB\10.0.17763.0\UM\X86\SHELL32.LIB
C:\PROGRAM FILES (X86)\WINDOWS KITS\10\LIB\10.0.17763.0\UM\X86\OLE32.LIB
C:\PROGRAM FILES (X86)\WINDOWS KITS\10\LIB\10.0.17763.0\UM\X86\OLEAUT32.LIB
C:\PROGRAM FILES (X86)\WINDOWS KITS\10\LIB\10.0.17763.0\UM\X86\UUID.LIB
C:\PROGRAM FILES (X86)\WINDOWS KITS\10\LIB\10.0.17763.0\UM\X86\ODBC32.LIB
C:\PROGRAM FILES (X86)\WINDOWS KITS\10\LIB\10.0.17763.0\UM\X86\ODBCCP32.LIB
C:\USERS\BONES\DOCUMENTS\REV ENGINE\REV ENGINE\RELEASE\ANKERMEN.OBJ
C:\USERS\BONES\DOCUMENTS\REV ENGINE\REV ENGINE\RELEASE\CORE.OBJ
C:\USERS\BONES\DOCUMENTS\REV ENGINE\REV ENGINE\RELEASE\DEBUGMENU.OBJ
C:\USERS\BONES\DOCUMENTS\REV ENGINE\REV ENGINE\RELEASE\MAIN.OBJ
C:\USERS\BONES\DOCUMENTS\REV ENGINE\REV ENGINE\RELEASE\PLAYERONE.OBJ
C:\USERS\BONES\DOCUMENTS\REV ENGINE\REV ENGINE\RELEASE\ROOM.OBJ
C:\WINDOWS\GLOBALIZATION\SORTING\SORTDEFAULT.NLS
C:\PROGRAM FILES (X86)\MICROSOFT VISUAL STUDIO\2019\COMMUNITY\VC\TOOLS\MSVC\14.21.27702\BIN\HOSTX86\X86\C2.DLL
C:\PROGRAM FILES (X86)\MICROSOFT VISUAL STUDIO\2019\COMMUNITY\VC\TOOLS\MSVC\14.21.27702\LIB\X86\MSVCRT.LIB
C:\PROGRAM FILES (X86)\MICROSOFT VISUAL STUDIO\2019\COMMUNITY\VC\TOOLS\MSVC\14.21.27702\LIB\X86\OLDNAMES.LIB
C:\PROGRAM FILES (X86)\MICROSOFT VISUAL STUDIO\2019\COMMUNITY\VC\TOOLS\MSVC\14.21.27702\LIB\X86\MSVCPRT.LIB
C:\PROGRAM FILES (X86)\MICROSOFT VISUAL STUDIO\2019\COMMUNITY\VC\TOOLS\MSVC\14.21.27702\LIB\X86\VCRUNTIME.LIB
C:\PROGRAM FILES (X86)\WINDOWS KITS\10\LIB\10.0.17763.0\UCRT\X86\UCRT.LIB
C:\PROGRAM FILES (X86)\MICROSOFT VISUAL STUDIO\2019\COMMUNITY\VC\TOOLS\MSVC\14.21.27702\BIN\HOSTX86\X86\1033\LINKUI.DLL
C:\PROGRAM FILES (X86)\MICROSOFT VISUAL STUDIO\2019\COMMUNITY\VC\TOOLS\MSVC\14.21.27702\BIN\HOSTX86\X86\CVTRES.EXE
C:\WINDOWS\SYSTEM32\TZRES.DLL
