^C:\USERS\BONES\DOCUMENTS\REV ENGINE\REV ENGINE\DEBUG\ANKERMEN.OBJ|C:\USERS\BONES\DOCUMENTS\REV ENGINE\REV ENGINE\DEBUG\BEAT.OBJ|C:\USERS\BONES\DOCUMENTS\REV ENGINE\REV ENGINE\DEBUG\CORE.OBJ|C:\USERS\BONES\DOCUMENTS\REV ENGINE\REV ENGINE\DEBUG\DEBUGMENU.OBJ|C:\USERS\BONES\DOCUMENTS\REV ENGINE\REV ENGINE\DEBUG\MAIN.OBJ|C:\USERS\BONES\DOCUMENTS\REV ENGINE\REV ENGINE\DEBUG\PHYSICS.OBJ|C:\USERS\BONES\DOCUMENTS\REV ENGINE\REV ENGINE\DEBUG\PLAYERONE.OBJ|C:\USERS\BONES\DOCUMENTS\REV ENGINE\REV ENGINE\DEBUG\ROOM.OBJ
C:\USERS\BONES\DOCUMENTS\REV ENGINE\REV ENGINE\DEBUG\REV ENGINE.EXE
C:\USERS\BONES\DOCUMENTS\REV ENGINE\REV ENGINE\DEBUG\REV ENGINE.ILK
C:\USERS\BONES\DOCUMENTS\REV ENGINE\REV ENGINE\DEBUG\REV ENGINE.PDB
