^C:\USERS\BONES\SOURCE\REPOS\REV_ENGINE\X64\DEBUG\ANKERMEN.OBJ|C:\USERS\BONES\SOURCE\REPOS\REV_ENGINE\X64\DEBUG\BEAT.OBJ|C:\USERS\BONES\SOURCE\REPOS\REV_ENGINE\X64\DEBUG\CORE.OBJ|C:\USERS\BONES\SOURCE\REPOS\REV_ENGINE\X64\DEBUG\DEBUGMENU.OBJ|C:\USERS\BONES\SOURCE\REPOS\REV_ENGINE\X64\DEBUG\MAIN.OBJ|C:\USERS\BONES\SOURCE\REPOS\REV_ENGINE\X64\DEBUG\PHYSICS.OBJ|C:\USERS\BONES\SOURCE\REPOS\REV_ENGINE\X64\DEBUG\PLAYERONE.OBJ|C:\USERS\BONES\SOURCE\REPOS\REV_ENGINE\X64\DEBUG\ROOM.OBJ
C:\USERS\BONES\SOURCE\REPOS\REV_ENGINE\X64\DEBUG\REV ENGINE.EXE
C:\USERS\BONES\SOURCE\REPOS\REV_ENGINE\X64\DEBUG\REV ENGINE.ILK
C:\USERS\BONES\SOURCE\REPOS\REV_ENGINE\X64\DEBUG\REV ENGINE.PDB
